
=================================================================

 TDLDA   2009 Mar 10 16: 4:32  -240 UTC

 Running serial version (no MPI)

Version date : Fri Jan  2 17:07:49 EST 2009
architecture = intel_oic
pre-processing options = -DUSEMKL
compilation options = -O3 -ip -xT -align

=================================================================


 Electronic structure data :
 ---------------------------

 Reading electron wavefunctions from file parsec.dat/wfn.dat

 Wavefunction file created on 10-MAR-2009 16:04:32 -0400 UTC

-*--*--*--*--*--*--*--*--*--*--*--*--*--*--*--*--*--*--*--*--*--*--*-
 Wavefunctions are complex
-*--*--*--*--*--*--*--*--*--*--*--*--*--*--*--*--*--*--*--*--*--*--*-


 Spin unpolarized calculation.

 K-point =      0.000000     0.000000     0.000000
  Number of occupied levels, spin            1  :    4.00000000000000     
 DFT Eigenvalues (eV), spin            1  :
 -23.76 -11.90  -7.37  -7.37  -0.97  -0.18
 Irreducible representations, spin            1  :
    1    1    1    1    1    1
 
 K-point =      0.000000     0.250000     0.000000
  Number of occupied levels, spin            1  :    4.00000000000000     
 DFT Eigenvalues (eV), spin            1  :
 -22.29 -11.70 -10.17  -9.37   1.03   1.83
 Irreducible representations, spin            1  :
    1    1    1    1    1    1
 
 K-point =      0.000000     0.500000     0.000000
  Number of occupied levels, spin            1  :    4.00000000000000     
 DFT Eigenvalues (eV), spin            1  :
 -18.48 -17.48 -10.73  -6.63  -2.58   3.21
 Irreducible representations, spin            1  :
    1    1    1    1    1    1
 
 K-point =      0.000000     0.750000     0.000000
  Number of occupied levels, spin            1  :    4.00000000000000     
 DFT Eigenvalues (eV), spin            1  :
 -22.28 -11.63 -10.15  -9.33   1.03   1.83
 Irreducible representations, spin            1  :
    1    1    1    1    1    1
 
 K-point =      0.250000     0.000000     0.000000
  Number of occupied levels, spin            1  :    4.00000000000000     
 DFT Eigenvalues (eV), spin            1  :
 -22.29 -11.70 -10.17  -9.37   1.03   1.83
 Irreducible representations, spin            1  :
    1    1    1    1    1    1
 
 K-point =      0.250000     0.250000     0.000000
  Number of occupied levels, spin            1  :    4.00000000000000     
 DFT Eigenvalues (eV), spin            1  :
 -22.29 -11.69 -10.17  -9.37   1.03   1.83
 Irreducible representations, spin            1  :
    1    1    1    1    1    1
 
 K-point =      0.250000     0.500000     0.000000
  Number of occupied levels, spin            1  :    4.00000000000000     
 DFT Eigenvalues (eV), spin            1  :
 -19.45 -14.75 -13.25  -7.01  -1.44   5.01
 Irreducible representations, spin            1  :
    1    1    1    1    1    1
 
 K-point =      0.250000     0.750000     0.000000
  Number of occupied levels, spin            1  :    4.00000000000000     
 DFT Eigenvalues (eV), spin            1  :
 -19.46 -14.74 -13.19  -7.00  -1.43   5.01
 Irreducible representations, spin            1  :
    1    1    1    1    1    1
 
 K-point =      0.500000     0.000000     0.000000
  Number of occupied levels, spin            1  :    4.00000000000000     
 DFT Eigenvalues (eV), spin            1  :
 -18.48 -17.48 -10.73  -6.63  -2.58   3.21
 Irreducible representations, spin            1  :
    1    1    1    1    1    1
 
 K-point =      0.500000     0.250000     0.000000
  Number of occupied levels, spin            1  :    4.00000000000000     
 DFT Eigenvalues (eV), spin            1  :
 -19.45 -14.75 -13.25  -7.01  -1.44   5.01
 Irreducible representations, spin            1  :
    1    1    1    1    1    1
 
 K-point =      0.500000     0.500000     0.000000
  Number of occupied levels, spin            1  :    4.00000000000000     
 DFT Eigenvalues (eV), spin            1  :
 -18.48 -17.47 -10.72  -6.63  -2.57   3.20
 Irreducible representations, spin            1  :
    1    1    1    1    1    1
 
 K-point =      0.500000     0.750000     0.000000
  Number of occupied levels, spin            1  :    4.00000000000000     
 DFT Eigenvalues (eV), spin            1  :
 -19.46 -14.74 -13.20  -7.00  -1.43   5.01
 Irreducible representations, spin            1  :
    1    1    1    1    1    1
 
 K-point =      0.750000     0.000000     0.000000
  Number of occupied levels, spin            1  :    4.00000000000000     
 DFT Eigenvalues (eV), spin            1  :
 -22.28 -11.63 -10.15  -9.33   1.03   1.83
 Irreducible representations, spin            1  :
    1    1    1    1    1    1
 
 K-point =      0.750000     0.250000     0.000000
  Number of occupied levels, spin            1  :    4.00000000000000     
 DFT Eigenvalues (eV), spin            1  :
 -19.46 -14.74 -13.19  -7.00  -1.43   5.01
 Irreducible representations, spin            1  :
    1    1    1    1    1    1
 
 K-point =      0.750000     0.500000     0.000000
  Number of occupied levels, spin            1  :    4.00000000000000     
 DFT Eigenvalues (eV), spin            1  :
 -19.46 -14.74 -13.20  -7.00  -1.43   5.01
 Irreducible representations, spin            1  :
    1    1    1    1    1    1
 
 K-point =      0.750000     0.750000     0.000000
  Number of occupied levels, spin            1  :    4.00000000000000     
 DFT Eigenvalues (eV), spin            1  :
 -22.28 -11.61 -10.15  -9.33   1.03   1.83
 Irreducible representations, spin            1  :
    1    1    1    1    1    1
 
 Maximum value of electron density (a.u.^-3) =   0.32357329E+00
 Total number of electrons =     8.0000

 MPI data :
 ----------

  Group partition information: 
  Distributing            1  processors among            1  groups.
  Each group contains            1  processors.
  I am processor rank            0  in group            0
  I am master in my group, with master rank            0
  My group has representations: 
    1

  Wavefunction partition information: 
  Distributing            1  processors among            1  groups.
  Each group contains            1  processors.
  I am processor rank            0  in group            0
  I am master in my group, with master rank    0

 Atom data :
 -----------

 Atom coordinates input in lattice vector units.

  Atomic coordinates (all atoms) are :
           x [a.u.]          y [a.u.]          z [a.u.]           Type
   1       0.000000000       0.000000000       0.000000000         C 
   2       2.325497896       1.342626836       0.000000000         C 

 Total number of atoms =    2
 Total number of atom types =    1

 Pseudopotential messages, element C :
 --------------------------------------

 Pseudopotential format : FHIPP
 Pseudopotential file for this atom type is C_FHIPP.DAT

 logarithmic parameters of pseudopot. radial grid
 r(i) = a*[Exp(b(i-1)) - 1)]
 a (a.u.) = 0.544845E-04 b = 0.100000E-01 c =  0.00000     nr =     1460

 # of pseudopot= 3, Local component is l = 2
 Core radius (a.u.) =  1.70

 Normalization check and Kleinman-Bylander Integral:
                        s             p             d
 Normalization        1.00001667    1.00001667 5417.58694930
 K-B Integral (Ry)    0.69266465   -0.32668139 *************

 Grid data :
 -----------

 Gradients and Laplacians calculated with finite differences, order   6

 Number of finite difference directions =  4
 Finite difference directions:
     1     0     0     weight =  0.666667
     0     1     0     weight =  0.666667
     0     0     1     weight =  1.000000
     1    -1     0     weight =  0.666667

  SLAB BOUNDARY CONDITIONS !

 Area of periodic cell (a.u.^2) =        18.733655

 Unit lattice vectors (a.u.) = 
   4.650995791578243   0.000000000000000
   2.325497895789121   4.027880508401273

 Confining radius (a.u.) =        18.600000

 Grid spacing (a.u.) =         0.465100        0.465100        0.400000

 Real-space FFT grid =   10  10 186  12

 Long-wavelength Coulomb energy (eV) =         5.5716561579

 Coulomb truncation length (a.u.) =        37.2000000000

 Full grid has       9400 points.
 Irreducible wedge has       9400 points.

 ELAPSED TIME =        0.03 s. parsec_wfn:  reading wave functions

 Read wavefunctions for          6 levels, spin    1 k-point    1

 Read wavefunctions for          6 levels, spin    1 k-point    2

 Read wavefunctions for          6 levels, spin    1 k-point    3

 Read wavefunctions for          6 levels, spin    1 k-point    4

 Read wavefunctions for          6 levels, spin    1 k-point    5

 Read wavefunctions for          6 levels, spin    1 k-point    6

 Read wavefunctions for          6 levels, spin    1 k-point    7

 Read wavefunctions for          6 levels, spin    1 k-point    8

 Read wavefunctions for          6 levels, spin    1 k-point    9

 Read wavefunctions for          6 levels, spin    1 k-point   10

 Read wavefunctions for          6 levels, spin    1 k-point   11

 Read wavefunctions for          6 levels, spin    1 k-point   12

 Read wavefunctions for          6 levels, spin    1 k-point   13

 Read wavefunctions for          6 levels, spin    1 k-point   14

 Read wavefunctions for          6 levels, spin    1 k-point   15

 Read wavefunctions for          6 levels, spin    1 k-point   16

-----------------------------------------------------------------


-----------------------------------------------------------------

 ELAPSED TIME =        0.10 s. Calling setup_g
 
  Matching k-points : 
 q-point #  1 =         0.0000000000        0.0000000000        0.0000000000
  k-point and (k-q) point 
    0.0000    0.0000    0.0000         0.0000    0.0000    0.0000
    0.0000    0.2500    0.0000         0.0000    0.2500    0.0000
    0.0000    0.5000    0.0000         0.0000    0.5000    0.0000
    0.0000    0.7500    0.0000         0.0000    0.7500    0.0000
    0.2500    0.0000    0.0000         0.2500    0.0000    0.0000
    0.2500    0.2500    0.0000         0.2500    0.2500    0.0000
    0.2500    0.5000    0.0000         0.2500    0.5000    0.0000
    0.2500    0.7500    0.0000         0.2500    0.7500    0.0000
    0.5000    0.0000    0.0000         0.5000    0.0000    0.0000
    0.5000    0.2500    0.0000         0.5000    0.2500    0.0000
    0.5000    0.5000    0.0000         0.5000    0.5000    0.0000
    0.5000    0.7500    0.0000         0.5000    0.7500    0.0000
    0.7500    0.0000    0.0000         0.7500    0.0000    0.0000
    0.7500    0.2500    0.0000         0.7500    0.2500    0.0000
    0.7500    0.5000    0.0000         0.7500    0.5000    0.0000
    0.7500    0.7500    0.0000         0.7500    0.7500    0.0000

-----------------------------------------------------------------

 Polarizability input data: 
 -------------------------

 Number of transitions per representation in TDLDA polarizabillity:
     128
 total =        128

 No energy cutoff in TDLDA polarizability
 Calculating TDLDA polarizability within the Tamm-Dancoff approximation.

 Coulomb potential is being truncated in the TDLDA equation.


 Memory needed to store wavefunctions :      13.77 MB/proc.
 Memory needed to calculate kernel matrix elements :       0.72 MB/proc.

 Memory needed for diagonalization :       0.38 MB/proc.

-----------------------------------------------------------------

 ELAPSED TIME =        0.50 s.  Calling readmatrix kernel_p

 Calculating kernel matrix elements in blocks of        50000 (buffer size) 

  kernel K_x + K_f (TDLDA spin singlet)
 Using          135  data blocks to store matrix elements.
 ELAPSED TIME =        0.51 s.  Creating   10 x   10 x  186 FFT MKL descriptors.
 ELAPSED TIME =        0.51 s. Starting calculation of kernel
Kernel done!      16384 matrix elements calculated by PE  0 representation  1
 Buffer sizes:            2
       16384           0
 
       50000       50000
 
 ELAPSED TIME =        2.36 s. FFT finalized
  Reconstructing kernel in blocks of        50000  matrix elements
 ELAPSED TIME =        2.37 s.  Calling diag_pol

#################################################################
 Calculation of polarizability eigenvectors for representation  1
 number of pair transitions =          128
 pair transitions per PE =          128
#################################################################


*****************************************************************
 WARNING!!!! Keeping the long-wavelength exchange.
*****************************************************************

 ELAPSED TIME =        2.37 s. diag_pol: Calling eigensolver
 ELAPSED TIME =        2.42 s. diag_pol: eigensolver done
 ELAPSED TIME =        2.42 s. diag_pol: energy factors included in eigenvectors
  Lowest energy eigenvalues in polarizability (eV): 
        4.286516
        5.368571
        5.373976

-----------------------------------------------------------------

 Checking oscillator strength sum rule
 Ratio between numerical and exact values :
                            Field polarization
                           x  ----  y  ----  z  ---- average
  RPA-LDA Sum Rule  =   0.5210   0.5227   0.7749      0.6062
     ALDA Sum Rule  =   2.8392   2.8573   3.1740      2.9568

-----------------------------------------------------------------

 Static polarizability (a.u.) 
                                 Field polarization 
                                x  ----  y  ----  z  ---- average
 RPA-LDA Polarizability =    58.16    58.37    28.58       48.371
    ALDA Polarizability =     7.75     7.76     6.85        7.452

  Average ALDA sum rule =    2.95682627808256     
  Average static RPA-LDA polarizability =    48.3707805422267     
-----------------------------------------------------------------

  Lowest energy eigenvalues in polarizability, all representations:
 Order      Energy (eV)  Representation
    1        4.286516         1
    2        5.368571         1
    3        5.373976         1
    4        5.565021         1
    5        5.620561         1
    6        5.621238         1
    7        6.406485         1
    8        6.406553         1
    9        6.696246         1
   10        7.189011         1

-----------------------------------------------------------------
                               CPU [s]     WALL [s]           #

 SETUP_T:                         0.000        0.000          0
 KERNEL:                          1.862        1.865          1
 
 DIAG_POL:                        0.054        0.017          1
 POISSON_FFT:                     0.000        0.000          0
 EIGENSOLVER:                     0.000        0.000          0
 INTEGRATION:                     0.000        0.000          0

                TOTAL             2.466        2.405

 Finished 2009 Mar 10 16: 4:34  -240 UTC
-----------------------------------------------------------------
