
=================================================================

 BSESOLV   2009 Mar 13 14: 8:51  -240 UTC

 Running serial version (no MPI)

Version date : Fri Jan  2 17:07:49 EST 2009
architecture = intel_oic
pre-processing options = -DUSEMKL
compilation options = -O3 -ip -xT -align

=================================================================


 Electronic structure data :
 ---------------------------

 Reading electron wavefunctions from file parsec.dat/wfn.dat

 Wavefunction file created on 13-MAR-2009 14:08:39 -0400 UTC

 Spin unpolarized calculation.

 K-point =      0.000000     0.000000     0.000000
  Number of occupied levels, spin            1  :    5.00000000000000     
 DFT Eigenvalues (eV), spin            1  :
 -21.24 -14.87  -9.74  -9.62  -8.96  -0.71  -0.52  -0.37   0.41   0.90
   2.20   2.51   2.87   3.14   3.18   3.98   4.16   4.61   4.74   4.75
 Irreducible representations, spin            1  :
    1    4    3    1    1    4    2    1    3    1
    2    4    3    4    1    3    1    4    1    2
 
 Maximum value of electron density (a.u.^-3) =   0.38083275E+00
 Total number of electrons =    10.0000

 MPI data :
 ----------

  Group partition information: 
  Distributing            1  processors among            1  groups.
  Each group contains            1  processors.
  I am processor rank            0  in group            0
  I am master in my group, with master rank            0
  My group has representations: 
    1    2    3    4

  Wavefunction partition information: 
  Distributing            1  processors among            1  groups.
  Each group contains            1  processors.
  I am processor rank            0  in group            0
  I am master in my group, with master rank    0

 Atom data :
 -----------

 Atom coordinates input in Bohr radii.

  Atomic coordinates (all atoms) are :
           x [a.u.]          y [a.u.]          z [a.u.]           Type
   1      -1.208950000      -0.643450000       0.000000000         C 
   2       1.208950000       0.643450000       0.000000000         C 
   1      -1.256200000      -2.702710000       0.000000000         H 
   2       1.256200000       2.702710000       0.000000000         H 

 Total number of atoms =    4
 Total number of atom types =    2

 Pseudopotential messages, element C :
 --------------------------------------

 Pseudopotential format : new Martins
 Pseudopotential file for this atom type is C_POTRE.DAT
  C  ca nrl nc
  ATM3      26-JUN- 4 Troullier-Martins
 2s 2.00  r= 1.60/2p 2.00  r= 1.60/

 logarithmic parameters of pseudopot. radial grid
 r(i) = a*[Exp(b(i-1)) - 1)]
 a (a.u.) = 0.413125E-03 b = 0.100000E-01 c = 0.413125E-03 nr =     1258

 # of pseudopot= 2, Local component is l = 1
 Core radius (a.u.) =  1.61

 Normalization check and Kleinman-Bylander Integral:
                        s             p
 Normalization        1.00001667    1.00001676
 K-B Integral (Ry)    1.03259921   -6.08517671

 Pseudopotential messages, element H :
 --------------------------------------

 Pseudopotential format : new Martins
 Pseudopotential file for this atom type is H_POTRE.DAT
  H  ca nrl nc
  ATM3      16-JUL- 4 Troullier-Martins
 1s 1.00  r= 1.39/

 logarithmic parameters of pseudopot. radial grid
 r(i) = a*[Exp(b(i-1)) - 1)]
 a (a.u.) = 0.247875E-02 b = 0.100000E-01 c = 0.247875E-02 nr =     1079

 # of pseudopot= 1, Local component is l = 0
 Core radius (a.u.) =  1.39

 Normalization check and Kleinman-Bylander Integral:
                        s
 Normalization        1.00001670
 K-B Integral (Ry)   -1.80714372

 Grid data :
 -----------

 Gradients and Laplacians calculated with finite differences, order   6

 Number of finite difference directions =  3
 Finite difference directions:
     1     0     0     weight =  1.000000
     0     1     0     weight =  1.000000
     0     0     1     weight =  1.000000

  WIRE BOUNDARY CONDITIONS !

 Length of periodic cell (a.u.) =         4.643060

 Unit lattice vectors (a.u.) = 
   4.643060000000000

 Confining radius (a.u.) =        11.963277

 Grid spacing (a.u.) =         0.464306        0.400000        0.400000

 Real-space FFT grid =   10 120 120  12

 Long-wavelength Coulomb energy (eV) =        -9.7349805856

 Coulomb truncation length (a.u.) =        23.9265542860

 Full grid has      28280 points.
 Irreducible wedge has       7070 points.

 ELAPSED TIME =        0.03 s. parsec_wfn:  reading wave functions

 Read wavefunctions for         20 levels, spin    1

-----------------------------------------------------------------


-----------------------------------------------------------------

 ELAPSED TIME =        0.04 s. Calling setup_b
 
  Matching k-points : 
 q-point #  1 =         0.0000000000        0.0000000000        0.0000000000
  k-point and (k-q) point 
    0.0000    0.0000    0.0000         0.0000    0.0000    0.0000
 
  Matching k-points (BSE) : 
 q-point # 1 =         0.0000000000        0.0000000000        0.0000000000
  k-point and (k-q) point 
    0.0000    0.0000    0.0000         0.0000    0.0000    0.0000

-----------------------------------------------------------------

 BSE input data: 
 ---------------

 Number of transitions per representation in TDLDA polarizabillity:
      22      16      17      20
 total =         75

 No energy cutoff in TDLDA polarizability
 Not using the Tamm-Dancoff approximation in TDLDA polarizability.

 Number of transitions per representation in BSE polarizabillity: 
      22      16      17      20
 total =         75

 No energy cutoff in BSE polarizability

Sum rule not renormalized

 BSE for spin singlet excitations

 No block mixing in BSE

 Negative energy reference. Neglecting dynamical screening effects 

 Using no energy resolution in BSE, energy poles

 Using the Hartree-Fock approximation in self-energy

 Coulomb potential is being truncated in the BSE equation.


 Memory needed to store wavefunctions :       1.08 MB/proc.
 Memory needed to calculate kernel matrix elements :       0.27 MB/proc.

 Memory needed for polarizability diagonalization :       0.01 MB/proc.
 Memory needed in potentials calculation :       0.05 MB/proc.
 Memory needed for single proc. BSE diagonalization :       0.03 MB/proc.

-----------------------------------------------------------------

  Checkpoint control =            0
 ELAPSED TIME =        0.41 s. Calling quasiparticle

 WARNING!!!! File hmat_qp not found.
 Searching for hmat_qp_nostatic.
!!!!!!!!!!!!!!!!!!!!!!!!!!!!!!!!!!!!!!!!!!!!!!!!!!!!!!!!!!!!!!!!!
 WARNING!!!! 
 File hmat_qp not found. Using Eigenvalues from DFT and scissors 
operator to define H_qp.
!!!!!!!!!!!!!!!!!!!!!!!!!!!!!!!!!!!!!!!!!!!!!!!!!!!!!!!!!!!!!!!!!


-----------------------------------------------------------------
 Calculation of Bare Exchange for representation  1

 ELAPSED TIME =        0.41 s.  Starting readmatrix kernel_vc

 Calculating kernel matrix elements in blocks of        50000 (buffer size) 

  kernel K_x (Hartree/Exchange kernel)
 Using           29  data blocks to store matrix elements.
 ELAPSED TIME =        0.41 s.  Creating   10 x  120 x  120 FFT MKL descriptors.

 Building truncated Coulomb potential using 2-D FFTs.
  FFT grid =          480         480
  Extra points between two points in 3-D FFT grid =            2
  Number of y-z supercells =            2
 
 ELAPSED TIME =        0.41 s. Creating  480 x 480 FFT MKL descriptors
 ELAPSED TIME =        1.23 s. Starting calculation of kernel
Kernel done!        253 matrix elements calculated by PE  0 representation  1
 Buffer sizes:            2
         253           0
 
       50000       50000
 
 ELAPSED TIME =        1.68 s. FFT finalized
  Reconstructing kernel in blocks of        50000  matrix elements
 ELAPSED TIME =        1.68 s. Calling exchange_b

-----------------------------------------------------------------
 Calculation of Bare Exchange for representation  2

 ELAPSED TIME =        1.68 s.  Starting readmatrix kernel_vc

 Calculating kernel matrix elements in blocks of        50000 (buffer size) 

  kernel K_x (Hartree/Exchange kernel)
 Using           23  data blocks to store matrix elements.
 ELAPSED TIME =        1.69 s.  Creating   10 x  120 x  120 FFT MKL descriptors.

 Building truncated Coulomb potential using 2-D FFTs.
  FFT grid =          480         480
  Extra points between two points in 3-D FFT grid =            2
  Number of y-z supercells =            2
 
 ELAPSED TIME =        1.69 s. Creating  480 x 480 FFT MKL descriptors
 ELAPSED TIME =        1.96 s. Starting calculation of kernel
Kernel done!        136 matrix elements calculated by PE  0 representation  2
 Buffer sizes:            2
         136           0
 
       50000       50000
 
 ELAPSED TIME =        2.29 s. FFT finalized
  Reconstructing kernel in blocks of        50000  matrix elements
 ELAPSED TIME =        2.29 s. Calling exchange_b

-----------------------------------------------------------------
 Calculation of Bare Exchange for representation  3

 ELAPSED TIME =        2.29 s.  Starting readmatrix kernel_vc

 Calculating kernel matrix elements in blocks of        50000 (buffer size) 

  kernel K_x (Hartree/Exchange kernel)
 Using           24  data blocks to store matrix elements.
 ELAPSED TIME =        2.30 s.  Creating   10 x  120 x  120 FFT MKL descriptors.

 Building truncated Coulomb potential using 2-D FFTs.
  FFT grid =          480         480
  Extra points between two points in 3-D FFT grid =            2
  Number of y-z supercells =            2
 
 ELAPSED TIME =        2.30 s. Creating  480 x 480 FFT MKL descriptors
 ELAPSED TIME =        2.58 s. Starting calculation of kernel
Kernel done!        153 matrix elements calculated by PE  0 representation  3
 Buffer sizes:            2
         153           0
 
       50000       50000
 
 ELAPSED TIME =        2.99 s. FFT finalized
  Reconstructing kernel in blocks of        50000  matrix elements
 ELAPSED TIME =        2.99 s. Calling exchange_b

-----------------------------------------------------------------
 Calculation of Bare Exchange for representation  4

 ELAPSED TIME =        3.00 s.  Starting readmatrix kernel_vc

 Calculating kernel matrix elements in blocks of        50000 (buffer size) 

  kernel K_x (Hartree/Exchange kernel)
 Using           27  data blocks to store matrix elements.
 ELAPSED TIME =        3.00 s.  Creating   10 x  120 x  120 FFT MKL descriptors.

 Building truncated Coulomb potential using 2-D FFTs.
  FFT grid =          480         480
  Extra points between two points in 3-D FFT grid =            2
  Number of y-z supercells =            2
 
 ELAPSED TIME =        3.00 s. Creating  480 x 480 FFT MKL descriptors
 ELAPSED TIME =        3.27 s. Starting calculation of kernel
Kernel done!        210 matrix elements calculated by PE  0 representation  4
 Buffer sizes:            2
         210           0
 
       50000       50000
 
 ELAPSED TIME =        4.04 s. FFT finalized
  Reconstructing kernel in blocks of        50000  matrix elements
 ELAPSED TIME =        4.04 s. Calling exchange_b

-----------------------------------------------------------------
 Calculation of Direct_bare kernel of BSE  Hamiltonian for representation  1

 ELAPSED TIME =        4.05 s.  Starting readmatrix kernel_x

 Calculating kernel matrix elements in blocks of        50000 (buffer size) 

  kernel K_x (Hartree/Exchange kernel)
 Using           18  data blocks to store matrix elements.
 ELAPSED TIME =        4.05 s.  Creating   10 x  120 x  120 FFT MKL descriptors.

 Building truncated Coulomb potential using 2-D FFTs.
  FFT grid =          480         480
  Extra points between two points in 3-D FFT grid =            2
  Number of y-z supercells =            2
 
 ELAPSED TIME =        4.05 s. Creating  480 x 480 FFT MKL descriptors
 ELAPSED TIME =        4.33 s. Starting calculation of kernel
Kernel done!        407 matrix elements calculated by PE  0 representation  1
 Buffer sizes:            2
         407           0
 
       50000       50000
 
 ELAPSED TIME =        4.58 s. FFT finalized
  Reconstructing kernel in blocks of        50000  matrix elements

-----------------------------------------------------------------
 Calculation of Direct_bare kernel of BSE  Hamiltonian for representation  2

 ELAPSED TIME =        4.58 s.  Starting readmatrix kernel_x

 Calculating kernel matrix elements in blocks of        50000 (buffer size) 

  kernel K_x (Hartree/Exchange kernel)
 Using            9  data blocks to store matrix elements.
 ELAPSED TIME =        4.58 s.  Creating   10 x  120 x  120 FFT MKL descriptors.

 Building truncated Coulomb potential using 2-D FFTs.
  FFT grid =          480         480
  Extra points between two points in 3-D FFT grid =            2
  Number of y-z supercells =            2
 
 ELAPSED TIME =        4.58 s. Creating  480 x 480 FFT MKL descriptors
 ELAPSED TIME =        5.24 s. Starting calculation of kernel
Kernel done!         54 matrix elements calculated by PE  0 representation  2
 Buffer sizes:            2
          54           0
 
       50000       50000
 
 ELAPSED TIME =        5.28 s. FFT finalized
  Reconstructing kernel in blocks of        50000  matrix elements

-----------------------------------------------------------------
 Calculation of Direct_bare kernel of BSE  Hamiltonian for representation  3

 ELAPSED TIME =        5.29 s.  Starting readmatrix kernel_x

 Calculating kernel matrix elements in blocks of        50000 (buffer size) 

  kernel K_x (Hartree/Exchange kernel)
 Using           13  data blocks to store matrix elements.
 ELAPSED TIME =        5.29 s.  Creating   10 x  120 x  120 FFT MKL descriptors.

 Building truncated Coulomb potential using 2-D FFTs.
  FFT grid =          480         480
  Extra points between two points in 3-D FFT grid =            2
  Number of y-z supercells =            2
 
 ELAPSED TIME =        5.29 s. Creating  480 x 480 FFT MKL descriptors
 ELAPSED TIME =        5.57 s. Starting calculation of kernel
Kernel done!        162 matrix elements calculated by PE  0 representation  3
 Buffer sizes:            2
         162           0
 
       50000       50000
 
 ELAPSED TIME =        5.70 s. FFT finalized
  Reconstructing kernel in blocks of        50000  matrix elements

-----------------------------------------------------------------
 Calculation of Direct_bare kernel of BSE  Hamiltonian for representation  4

 ELAPSED TIME =        5.70 s.  Starting readmatrix kernel_x

 Calculating kernel matrix elements in blocks of        50000 (buffer size) 

  kernel K_x (Hartree/Exchange kernel)
 Using           13  data blocks to store matrix elements.
 ELAPSED TIME =        5.70 s.  Creating   10 x  120 x  120 FFT MKL descriptors.

 Building truncated Coulomb potential using 2-D FFTs.
  FFT grid =          480         480
  Extra points between two points in 3-D FFT grid =            2
  Number of y-z supercells =            2
 
 ELAPSED TIME =        5.71 s. Creating  480 x 480 FFT MKL descriptors
 ELAPSED TIME =        5.98 s. Starting calculation of kernel
Kernel done!        174 matrix elements calculated by PE  0 representation  4
 Buffer sizes:            2
         174           0
 
       50000       50000
 
 ELAPSED TIME =        6.11 s. FFT finalized
  Reconstructing kernel in blocks of        50000  matrix elements
 ELAPSED TIME =        6.12 s. Calling direct_b
  ERROR! Negative eigenvalues for representation            1  : (eV)
   17.5615352843485     
   16.1563019075973     
   15.3306094595833     
   9.40931466569168     
   8.30084958066394     
   7.00353704672214     
   5.78736704648349     
   5.49158096405280     
   4.97769404602029     
   4.53102513201096     
   3.92336472613799     
   3.56815082229806     
   3.11618064943055     
   2.72202121151106     
   2.56324202096366     
  3.237936331257079E-002

#################################################################
  Calculation of BSE eigenvectors for representation            1
  number of pair transitions =           22
#################################################################

  Lowest eigenvalues for this representation (eV) : 
  -7.27017872998014     
  -6.36249785098972     
  -6.17009232495616     
  ERROR! Negative eigenvalues for representation            2  : (eV)
   17.5318459209877     
   13.1496454109121     
   9.79634003704718     
   8.39507546350927     
   5.57911753169529     
   4.99211569719718     
   3.90072908692963     
   2.31925452165237     
   2.11762929754778     
  0.658063303135990     
  0.263456482823708     

#################################################################
  Calculation of BSE eigenvectors for representation            2
  number of pair transitions =           16
#################################################################

  Lowest eigenvalues for this representation (eV) : 
  -14.0923711828692     
  -11.0885889285169     
  -10.7797633666270     
  ERROR! Negative eigenvalues for representation            3  : (eV)
   16.1434067645778     
   14.5856866215134     
   11.0665861004978     
   7.95031659343058     
   6.57871648128656     
   5.89756583357231     
   4.50276419551973     
   4.34061002684211     
   3.74606096646535     
   3.55354156813660     
   2.29334675602754     
   1.68490465766291     

#################################################################
  Calculation of BSE eigenvectors for representation            3
  number of pair transitions =           17
#################################################################

  Lowest eigenvalues for this representation (eV) : 
  -6.08013365737816     
  -5.47820611188657     
  -5.20701893264573     
  ERROR! Negative eigenvalues for representation            4  : (eV)
   15.6811977368052     
   14.1647353957421     
   11.0500128433119     
   9.83262144805711     
   9.12036538880695     
   6.24627211054599     
   5.86357780396223     
   3.34784107678983     
   2.75684949570456     
   2.31424155531555     
   2.06510598829398     
   1.49346364817094     
   1.29724964054316     
  0.721774961359985     

#################################################################
  Calculation of BSE eigenvectors for representation            4
  number of pair transitions =           20
#################################################################

  Lowest eigenvalues for this representation (eV) : 
  -14.7466722700473     
  -8.77732592291112     
  -7.48677879792610     

-----------------------------------------------------------------

 Checking oscillator strength sum rule 
 Ratio between numerical and exact values : 
                            Field polarization 
                           x  ----  y  ----  z  ---- average
      BSE Sum Rule  =   0.0451   0.1379   0.3260      0.1697

-----------------------------------------------------------------

 Static polarizability (a.u.) 
                                 Field polarization 
                                x  ----  y  ----  z  ---- average
     BSE Polarizability =    33.6913 442.5316  37.2926    171.1718

-----------------------------------------------------------------

  Lowest eigenvalues from BSE, all representations
 Order      Energy (eV)  Representation
    1        0.032379         1
    2        0.263456         2
    3        0.658063         2
    4        0.721775         4
    5        1.297250         4
    6        1.493464         4
    7        1.684905         3
    8        2.065106         4
    9        2.117629         2
   10        2.293347         3
 

-----------------------------------------------------------------
                               CPU [s]     WALL [s]           #

 SETUP_B:                         0.371        0.370          1
 KERNEL:                          5.677        2.865          8
 DIAG_POL:                        0.000        0.000          0
 POTENTIAL:                       0.000        0.000          0
 EXCHANGE_B:                      0.001        0.000          4
 DIRECT_B:                        0.006        0.003          1
 DIRECT_S:                        0.000        0.000          0
 DIRECT_MIX:                      0.000        0.000          0
 
 DIAG_BSE:                        0.004        0.003          1
 POISSON_FFT:                     1.815        0.912        200
 EIGENSOLVER:                     0.000        0.000          0
 INTEGRATION:                     0.144        0.074        100

                TOTAL             6.136        3.301

 Finished 2009 Mar 13 14: 8:54  -240 UTC
-----------------------------------------------------------------
