
=================================================================

 TDLDA   2009 Mar 13 14: 8:39  -240 UTC

 Running serial version (no MPI)

Version date : Fri Jan  2 17:07:49 EST 2009
architecture = intel_oic
pre-processing options = -DUSEMKL
compilation options = -O3 -ip -xT -align

=================================================================


 Electronic structure data :
 ---------------------------

 Reading electron wavefunctions from file parsec.dat/wfn.dat

 Wavefunction file created on 13-MAR-2009 14:08:39 -0400 UTC

 Spin unpolarized calculation.

 K-point =      0.000000     0.000000     0.000000
  Number of occupied levels, spin            1  :    5.00000000000000     
 DFT Eigenvalues (eV), spin            1  :
 -21.24 -14.87  -9.74  -9.62  -8.96  -0.71  -0.52  -0.37   0.41   0.90
   2.20   2.51   2.87   3.14   3.18   3.98   4.16   4.61   4.74   4.75
 Irreducible representations, spin            1  :
    1    4    3    1    1    4    2    1    3    1
    2    4    3    4    1    3    1    4    1    2
 
 Maximum value of electron density (a.u.^-3) =   0.38083275E+00
 Total number of electrons =    10.0000

 MPI data :
 ----------

  Group partition information: 
  Distributing            1  processors among            1  groups.
  Each group contains            1  processors.
  I am processor rank            0  in group            0
  I am master in my group, with master rank            0
  My group has representations: 
    1    2    3    4

  Wavefunction partition information: 
  Distributing            1  processors among            1  groups.
  Each group contains            1  processors.
  I am processor rank            0  in group            0
  I am master in my group, with master rank    0

 Atom data :
 -----------

 Atom coordinates input in Bohr radii.

  Atomic coordinates (all atoms) are :
           x [a.u.]          y [a.u.]          z [a.u.]           Type
   1      -1.208950000      -0.643450000       0.000000000         C 
   2       1.208950000       0.643450000       0.000000000         C 
   1      -1.256200000      -2.702710000       0.000000000         H 
   2       1.256200000       2.702710000       0.000000000         H 

 Total number of atoms =    4
 Total number of atom types =    2

 Pseudopotential messages, element C :
 --------------------------------------

 Pseudopotential format : new Martins
 Pseudopotential file for this atom type is C_POTRE.DAT
  C  ca nrl nc
  ATM3      26-JUN- 4 Troullier-Martins
 2s 2.00  r= 1.60/2p 2.00  r= 1.60/

 logarithmic parameters of pseudopot. radial grid
 r(i) = a*[Exp(b(i-1)) - 1)]
 a (a.u.) = 0.413125E-03 b = 0.100000E-01 c = 0.413125E-03 nr =     1258

 # of pseudopot= 2, Local component is l = 1
 Core radius (a.u.) =  1.61

 Normalization check and Kleinman-Bylander Integral:
                        s             p
 Normalization        1.00001667    1.00001676
 K-B Integral (Ry)    1.03259921   -6.08517671

 Pseudopotential messages, element H :
 --------------------------------------

 Pseudopotential format : new Martins
 Pseudopotential file for this atom type is H_POTRE.DAT
  H  ca nrl nc
  ATM3      16-JUL- 4 Troullier-Martins
 1s 1.00  r= 1.39/

 logarithmic parameters of pseudopot. radial grid
 r(i) = a*[Exp(b(i-1)) - 1)]
 a (a.u.) = 0.247875E-02 b = 0.100000E-01 c = 0.247875E-02 nr =     1079

 # of pseudopot= 1, Local component is l = 0
 Core radius (a.u.) =  1.39

 Normalization check and Kleinman-Bylander Integral:
                        s
 Normalization        1.00001670
 K-B Integral (Ry)   -1.80714372

 Grid data :
 -----------

 Gradients and Laplacians calculated with finite differences, order   6

 Number of finite difference directions =  3
 Finite difference directions:
     1     0     0     weight =  1.000000
     0     1     0     weight =  1.000000
     0     0     1     weight =  1.000000

  WIRE BOUNDARY CONDITIONS !

 Length of periodic cell (a.u.) =         4.643060

 Unit lattice vectors (a.u.) = 
   4.643060000000000

 Confining radius (a.u.) =        11.963277

 Grid spacing (a.u.) =         0.464306        0.400000        0.400000

 Real-space FFT grid =   10 120 120  12

 Long-wavelength Coulomb energy (eV) =        -9.7349805856

 Coulomb truncation length (a.u.) =        23.9265542860

 Full grid has      28280 points.
 Irreducible wedge has       7070 points.

 ELAPSED TIME =        0.03 s. parsec_wfn:  reading wave functions

 Read wavefunctions for         20 levels, spin    1

-----------------------------------------------------------------


-----------------------------------------------------------------

 ELAPSED TIME =        0.03 s. Calling setup_g
 
  Matching k-points : 
 q-point #  1 =         0.0000000000        0.0000000000        0.0000000000
  k-point and (k-q) point 
    0.0000    0.0000    0.0000         0.0000    0.0000    0.0000

-----------------------------------------------------------------

 Polarizability input data: 
 -------------------------

 Number of transitions per representation in TDLDA polarizabillity:
      22      16      17      20
 total =         75

 No energy cutoff in TDLDA polarizability
 Not using the Tamm-Dancoff approximation in TDLDA polarizability.

 Coulomb potential is being truncated in the TDLDA equation.


 Memory needed to store wavefunctions :       1.08 MB/proc.
 Memory needed to calculate kernel matrix elements :       0.27 MB/proc.

 Memory needed for diagonalization :       0.01 MB/proc.

-----------------------------------------------------------------

 ELAPSED TIME =        0.16 s.  Calling readmatrix kernel_p

 Calculating kernel matrix elements in blocks of        50000 (buffer size) 

  kernel K_x + K_f (TDLDA spin singlet)
 Using           29  data blocks to store matrix elements.
 ELAPSED TIME =        0.16 s.  Creating   10 x  120 x  120 FFT MKL descriptors.

 Building truncated Coulomb potential using 2-D FFTs.
  FFT grid =          480         480
  Extra points between two points in 3-D FFT grid =            2
  Number of y-z supercells =            2
 
 ELAPSED TIME =        0.16 s. Creating  480 x 480 FFT MKL descriptors
 ELAPSED TIME =        1.00 s. Starting calculation of kernel
Kernel done!        253 matrix elements calculated by PE  0 representation  1
 Buffer sizes:            2
         253           0
 
       50000       50000
 
 ELAPSED TIME =        1.82 s. FFT finalized
  Reconstructing kernel in blocks of        50000  matrix elements

*****************************************************************
  WARNING!!!! Removing the long-wavelength exchange. 
*****************************************************************

 ELAPSED TIME =        1.83 s.  Calling diag_pol

#################################################################
 Calculation of polarizability eigenvectors for representation  1
 number of pair transitions =           22
 pair transitions per PE =           22
#################################################################

 ELAPSED TIME =        1.83 s. diag_pol: Calling eigensolver
 ELAPSED TIME =        1.83 s. diag_pol: eigensolver done
 ELAPSED TIME =        1.83 s. diag_pol: energy factors included in eigenvectors
  Lowest energy eigenvalues in polarizability (eV): 
        8.678580
        9.400745
        9.919065
 ELAPSED TIME =        1.83 s.  Calling readmatrix kernel_p

 Calculating kernel matrix elements in blocks of        50000 (buffer size) 

  kernel K_x + K_f (TDLDA spin singlet)
 Using           23  data blocks to store matrix elements.
 ELAPSED TIME =        1.83 s.  Creating   10 x  120 x  120 FFT MKL descriptors.

 Building truncated Coulomb potential using 2-D FFTs.
  FFT grid =          480         480
  Extra points between two points in 3-D FFT grid =            2
  Number of y-z supercells =            2
 
 ELAPSED TIME =        1.84 s. Creating  480 x 480 FFT MKL descriptors
 ELAPSED TIME =        2.11 s. Starting calculation of kernel
Kernel done!        136 matrix elements calculated by PE  0 representation  2
 Buffer sizes:            2
         136           0
 
       50000       50000
 
 ELAPSED TIME =        2.43 s. FFT finalized
  Reconstructing kernel in blocks of        50000  matrix elements

*****************************************************************
  WARNING!!!! Removing the long-wavelength exchange. 
*****************************************************************

 ELAPSED TIME =        2.43 s.  Calling diag_pol

#################################################################
 Calculation of polarizability eigenvectors for representation  2
 number of pair transitions =           16
 pair transitions per PE =           16
#################################################################

 ELAPSED TIME =        2.43 s. diag_pol: Calling eigensolver
 ELAPSED TIME =        2.43 s. diag_pol: eigensolver done
 ELAPSED TIME =        2.43 s. diag_pol: energy factors included in eigenvectors
  Lowest energy eigenvalues in polarizability (eV): 
        8.551521
        9.044727
        9.338100
 ELAPSED TIME =        2.44 s.  Calling readmatrix kernel_p

 Calculating kernel matrix elements in blocks of        50000 (buffer size) 

  kernel K_x + K_f (TDLDA spin singlet)
 Using           24  data blocks to store matrix elements.
 ELAPSED TIME =        2.44 s.  Creating   10 x  120 x  120 FFT MKL descriptors.

 Building truncated Coulomb potential using 2-D FFTs.
  FFT grid =          480         480
  Extra points between two points in 3-D FFT grid =            2
  Number of y-z supercells =            2
 
 ELAPSED TIME =        2.44 s. Creating  480 x 480 FFT MKL descriptors
 ELAPSED TIME =        2.71 s. Starting calculation of kernel
Kernel done!        153 matrix elements calculated by PE  0 representation  3
 Buffer sizes:            2
         153           0
 
       50000       50000
 
 ELAPSED TIME =        3.13 s. FFT finalized
  Reconstructing kernel in blocks of        50000  matrix elements

*****************************************************************
  WARNING!!!! Removing the long-wavelength exchange. 
*****************************************************************

 ELAPSED TIME =        3.14 s.  Calling diag_pol

#################################################################
 Calculation of polarizability eigenvectors for representation  3
 number of pair transitions =           17
 pair transitions per PE =           17
#################################################################

 ELAPSED TIME =        3.14 s. diag_pol: Calling eigensolver
 ELAPSED TIME =        3.14 s. diag_pol: eigensolver done
 ELAPSED TIME =        3.14 s. diag_pol: energy factors included in eigenvectors
  Lowest energy eigenvalues in polarizability (eV): 
             NaN
        9.394965
        9.822795
 ELAPSED TIME =        3.14 s.  Calling readmatrix kernel_p

 Calculating kernel matrix elements in blocks of        50000 (buffer size) 

  kernel K_x + K_f (TDLDA spin singlet)
 Using           27  data blocks to store matrix elements.
 ELAPSED TIME =        3.14 s.  Creating   10 x  120 x  120 FFT MKL descriptors.

 Building truncated Coulomb potential using 2-D FFTs.
  FFT grid =          480         480
  Extra points between two points in 3-D FFT grid =            2
  Number of y-z supercells =            2
 
 ELAPSED TIME =        3.14 s. Creating  480 x 480 FFT MKL descriptors
 ELAPSED TIME =        3.41 s. Starting calculation of kernel
Kernel done!        210 matrix elements calculated by PE  0 representation  4
 Buffer sizes:            2
         210           0
 
       50000       50000
 
 ELAPSED TIME =        4.00 s. FFT finalized
  Reconstructing kernel in blocks of        50000  matrix elements

*****************************************************************
  WARNING!!!! Removing the long-wavelength exchange. 
*****************************************************************

 ELAPSED TIME =        4.00 s.  Calling diag_pol

#################################################################
 Calculation of polarizability eigenvectors for representation  4
 number of pair transitions =           20
 pair transitions per PE =           20
#################################################################

 ELAPSED TIME =        4.00 s. diag_pol: Calling eigensolver
 ELAPSED TIME =        4.00 s. diag_pol: eigensolver done
 ELAPSED TIME =        4.00 s. diag_pol: energy factors included in eigenvectors
  Lowest energy eigenvalues in polarizability (eV): 
             NaN
             NaN
        8.588274

-----------------------------------------------------------------

 Checking oscillator strength sum rule
 Ratio between numerical and exact values :
                            Field polarization
                           x  ----  y  ----  z  ---- average
  RPA-LDA Sum Rule  =   0.9619   2.0829   0.9875      1.3441
     ALDA Sum Rule  =      NaN      NaN      NaN         NaN

-----------------------------------------------------------------

 Static polarizability (a.u.) 
                                 Field polarization 
                                x  ----  y  ----  z  ---- average
 RPA-LDA Polarizability =    34.97    53.10    27.45       38.508
    ALDA Polarizability =      NaN      NaN      NaN          NaN

  Average ALDA sum rule =  NaN                    
  Average static RPA-LDA polarizability =    38.5078297763298     
-----------------------------------------------------------------

  Lowest energy eigenvalues in polarizability, all representations:
 Order      Energy (eV)  Representation
    1        8.551521         2
    2        8.588274         4
    3        8.678580         1
    4        9.044727         2
    5        9.338100         2
    6        9.394965         3
    7        9.400745         1
    8        9.434180         4
    9        9.822795         3
   10        9.919065         1

-----------------------------------------------------------------
                               CPU [s]     WALL [s]           #

 SETUP_T:                         0.125        0.124          1
 KERNEL:                          3.827        1.942          4
 
 DIAG_POL:                        0.000        0.002          4
 POISSON_FFT:                     0.000        0.000          0
 EIGENSOLVER:                     0.000        0.000          0
 INTEGRATION:                     0.000        0.000          0

                TOTAL             4.008        2.119

 Finished 2009 Mar 13 14: 8:42  -240 UTC
-----------------------------------------------------------------
